{
    "emotions_list" : [
        {
            "emotion_name": "Sadness",
            "emotion_nickname": "sadness",
            "color" : "#3333ff",
            "coordinates":[60.156816, 24.960183]
        },
        {
            "emotion_name": "Tired",
            "emotion_nickname": "tired",
            "color" : "#00b3b3",
            "coordinates": [24.014355, 37.997192]
            
        },
        {
            "emotion_name": "Panic",
            "emotion_nickname": "panic",
            "color" : "#d2a679",
            "coordinates" : [36.682517, 10.378991]
            
        },
        {
            "emotion_name": "Nervous",
            "emotion_nickname": "Nervous",
            "color" : "#ff9900",
            "coordinates" : [32.960743, 13.188936]
            
        },
        {
            "emotion_name": "Stress",
            "emotion_nickname": "stress",
            "color" : "#00b3b3",
            "coordinates" : [31.135722, 29.870890]
            
        },
        {
            "emotion_name": "Bored",
            "emotion_nickname": "bored",
            "color": "#86b300",
            "coordinates": [35.525073, 35.780564]
        },
        {
            "emotion_name": "Lonely",
            "emotion_nickname": "lonely",
            "color": "#6666ff",
            "coordinates": [50.432317, 30.513052]
        },
        {
            "emotion_name": "Depressed",
            "emotion_nickname": "depressed",
            "color": "#000099",
            "coordinates" : [41.085976, 29.038658]
        },
        {
            "emotion_name": "Ashamed",
            "emotion_nickname": "ashamed",
            "color":"#00ff99",
            "coordinates": [46.944262, 7.472281]
        },
        {
            "emotion_name": "Guilty",
            "emotion_nickname": "guilty",
            "color":"#996633",
            "coordinates": [41.823730, 12.475746]
        },
        {
            "emotion_name": "Angry",
            "emotion_nickname": "angry",
            "color":"#ff0000",
            "coordinates": [42.830862, -8.571765]
        },
        {
            "emotion_name": "Hateful",
            "emotion_nickname": "hateful",
            "color":"#cc0000",
            "coordinates" : [38.723233, -9.164049]
        },
        {
            "emotion_name": "Rejected - Social Exclusion",
            "emotion_nickname": "rejected",
            "color":"#1a75ff",
            "coordinates": [52.300417, 20.993162]
        },
        {
            "emotion_name": "Helpless",
            "emotion_nickname": "helpless",
            "color":"#004080",
            "coordinates":[50.114942, 14.413322]
        },
        {
            "emotion_name": "Insecure",
            "emotion_nickname": "insecure",
            "color":"#004080",
            "coordinates":[44.874557, 20.409298]
        },
        {
            "emotion_name": "Anxious",
            "emotion_nickname": "anxious",
            "color":"#0073e6",
            "coordinates": [37.971917, 23.705554]
        },
        {
            "emotion_name": "Scared",
            "emotion_nickname": "scared",
            "color":"#00ff00",
            "coordinates": [48.853319, 2.348424]
        },
        {
            "emotion_name": "Sleepy",
            "emotion_nickname": "sleepy",
            "color":"#39ac39",
            "coordinates":[28.312119, 36.507871]
        },
        {
            "emotion_name": "Isolated",
            "emotion_nickname": "isolated",
            "color":"#cc00ff",
            "coordinates": [44.534108, 26.101464]
        },
        {
            "emotion_name": "Inferior",
            "emotion_nickname": "inferior",
            "color": "#cccc00",
            "coordinates":[55.955966, -3.289692]
        },
        {
            "emotion_name": "Stupid",
            "emotion_nickname": "stupid",
            "color":"#b3b300",
            "coordinates":[51.538819, -0.130181]
        },
        {
            "emotion_name": "Remorseful",
            "emotion_nickname": "remorseful",
            "color":"#339966",
            "coordinates":[45.404621, 9.181357]
        },
        {
            "emotion_name": "Distant",
            "emotion_nickname": "distant",
            "color":"#ffff33",
            "coordinates":[62.169605, -7.040676]
        },
        {
            "emotion_name": "Frustrated",
            "emotion_nickname": "frustrated",
            "color":"#b366ff",
            "coordinates":[48.721411, 21.247317]
        },
        {
            "emotion_name": "Jealous",
            "emotion_nickname": "jealous",
            "color":"#ff4d4d",
            "coordinates":[53.918575, 27.551906]
        },
        {
            "emotion_name": "Irritated",
            "emotion_nickname": "irritated",
            "color":"#cc0044",
            "coordinates":[41.515159, 2.099814]
        },
        {
            "emotion_name": "Discouraged",
            "emotion_nickname": "discouraged",
            "color":"#ff4d4d",
            "coordinates":[59.315253, 18.052136]
        },
        {
            "emotion_name": "Insignificant",
            "emotion_nickname": "insignificant",
            "color":"#660000",
            "coordinates":[59.893346, 10.760427]
        },
        {
            "emotion_name": "Embarassed",
            "emotion_nickname": "embarassed",
            "color":"#99ff99",
            "coordinates":[52.364867, 9.710762]
        },
        {
            "emotion_name": "Overwhelmed",
            "emotion_nickname": "overwhelmed",
            "color":"#ffb3b3",
            "coordinates":[32.183051, 20.068995]
        },
        {
            "emotion_name": "Heartbreak",
            "emotion_nickname": "heartbreak",
            "color":"#9900cc",
            "coordinates":[55.835846, 37.508200]
        }
        
    ]

}